{
  "appId": "io.ionic.starter",
  "appName": "IonicReactDemo",
  "bundledWebRuntime": false,
  "npmClient": "npm",
  "webDir": "build",
  "plugins": {
    "SplashScreen": {
      "launchShowDuration": 0
    }

  },
  "cordova": {},
  "linuxAndroidStudioPath": "/home/vasiliy/Programs/android-studio-ide-201.7042882-linux/android-studio/bin/studio.sh"
}
